[
{
  "pk": 1, 
  "model": "ksp_bl.surveytype", 
  "fields": {
    "code": "K", 
    "description": "Kontrollstichprobenaufnahme"
  }
},
{
  "pk": 2, 
  "model": "ksp_bl.surveytype", 
  "fields": {
    "code": "Q", 
    "description": "Verj\u00fcngung"
  }
},
{
  "pk": 3, 
  "model": "ksp_bl.surveytype", 
  "fields": {
    "code": "B", 
    "description": "Bl\u00f6sse"
  }
},
{
  "pk": 4, 
  "model": "ksp_bl.surveytype", 
  "fields": {
    "code": "N", 
    "description": "nicht Wald"
  }
}
]
