[
{
  "pk": 1, 
  "model": "ksp_bl.vita", 
  "fields": {
    "code": "c", 
    "description": "Probebaum wurde genutzt"
  }
},
{
  "pk": 2, 
  "model": "ksp_bl.vita", 
  "fields": {
    "code": "e", 
    "description": "Probebaum ist eingewachsen"
  }
},
{
  "pk": 3, 
  "model": "ksp_bl.vita", 
  "fields": {
    "code": "l", 
    "description": "Probebaum lebt"
  }
},
{
  "pk": 4, 
  "model": "ksp_bl.vita", 
  "fields": {
    "code": "m", 
    "description": "Probebaum ist ein Dürrständer"
  }
},
{
  "pk": 5, 
  "model": "ksp_bl.vita", 
  "fields": {
    "code": "x", 
    "description": "Probebaum ist nicht mehr auffindbar"
  }
},
{
  "pk": 6, 
  "model": "ksp_bl.vita", 
  "fields": {
    "code": "y", 
    "description": "Probebaum liegt ausserhalb des Probekreises"
  }
},
{
  "pk": 7,
  "model": "ksp_bl.vita",
  "fields": {
    "code": "z",
    "description": "liegender, toter Baum"
  }
}
]
